…
**Problem 1**

Loading the Instacart dataset

``` r
data("instacart")
instacart
```

    ## # A tibble: 1,384,617 × 15
    ##    order_id product_id add_to_…¹ reord…² user_id eval_…³ order…⁴ order…⁵ order…⁶
    ##       <int>      <int>     <int>   <int>   <int> <chr>     <int>   <int>   <int>
    ##  1        1      49302         1       1  112108 train         4       4      10
    ##  2        1      11109         2       1  112108 train         4       4      10
    ##  3        1      10246         3       0  112108 train         4       4      10
    ##  4        1      49683         4       0  112108 train         4       4      10
    ##  5        1      43633         5       1  112108 train         4       4      10
    ##  6        1      13176         6       0  112108 train         4       4      10
    ##  7        1      47209         7       0  112108 train         4       4      10
    ##  8        1      22035         8       1  112108 train         4       4      10
    ##  9       36      39612         1       0   79431 train        23       6      18
    ## 10       36      19660         2       1   79431 train        23       6      18
    ## # … with 1,384,607 more rows, 6 more variables: days_since_prior_order <int>,
    ## #   product_name <chr>, aisle_id <int>, department_id <int>, aisle <chr>,
    ## #   department <chr>, and abbreviated variable names ¹​add_to_cart_order,
    ## #   ²​reordered, ³​eval_set, ⁴​order_number, ⁵​order_dow, ⁶​order_hour_of_day
…
``` r
excellent_df <- brfss_smart2010 %>% 
  filter(response == "Excellent") %>% 
  group_by(year, locationdesc) %>%
  summarize(avg_data_value = mean(data_value, na.rm = TRUE))
```

    ## `summarise()` has grouped output by 'year'. You can override using the
    ## `.groups` argument.

``` r
excellent_df
```

    ## # A tibble: 2,125 × 3
    ## # Groups:   year [9]
    ##     year locationdesc                avg_data_value
    ##    <int> <chr>                                <dbl>
    ##  1  2002 AK - Anchorage Municipality           27.9
    ##  2  2002 AL - Jefferson County                 18.5
    ##  3  2002 AR - Pulaski County                   24.1
    ##  4  2002 AZ - Maricopa County                  21.6
    ##  5  2002 AZ - Pima County                      26.6
    ##  6  2002 CA - Los Angeles County               22.7
    ##  7  2002 CO - Adams County                     21.2
    ##  8  2002 CO - Arapahoe County                  25.5
    ##  9  2002 CO - Denver County                    22.2
    ## 10  2002 CO - Jefferson County                 23.4
    ## # … with 2,115 more rows
…
